@startuml

skinparam BackgroundColor transparent

|选择性流程S|
|一般性流程N|
start
:1.0.01
顾客请求查看特定日期的菜单;
|异常流程E|
:参见异常流程
1.0.E1和1.0.E2;
/'
if (请求特定日期时\n出现异常？) then (YES)
|异常流程E|
    :进入异常流程1.0 E1;
    if (终止用例？) then (YES)
        end
    else (NO)
    endif
else (NO)
endif
'/
|一般性流程N|
repeat
    :1.0.02
    COS显示
    可选菜品项菜单
    以及每日特色菜;
    :1.0.03
    顾客从菜单中选择
    一项或多项菜品;
|选择性流程S|
    :参见1.1.S;
/'
    if (订多个相同的菜品？) then (YES)
|选择性流程S|
        :选择性流程子过程;
            if (终止用例？) then (YES)
            end
        else (NO)
        endif
    else (NO)
    endif
'/
|一般性流程N|
    :1.0.04
    顾客表示订餐完成;
|选择性流程S|
    :参见1.2.S;
|一般性流程N|
    :1.0.05
    COS显示所订
    菜单项、单价及总价，
    包括税费和配送运费;
repeat while (1.0.06b\n请求修改订单？) is (YES)
->NO;
:1.0.06a
确认订餐订单;
:1.0.07
COS显示送餐日期
的可送餐时间;
:1.0.08
顾客选择送餐时间
并制定送餐地点;
:1.0.09
顾客选择支付方式;
:1.0.10
COS确认接受订单;
:1.0.11
COS给顾客发送
一封电子邮件信息
确认订单详情、价格
以及送餐事宜;
:1.0.12
COS存储订单，
将菜品信息
发送给食堂库存系统，
并更新可用的送餐时间;

|一般性流程N|
stop

@enduml