@startuml

left to right direction

actor :送餐\n人员: as deliverer

rectangle "COS System"{
    usecase (rec_meal_delivery) as "记录\n送餐记录"
    usecase (print_delivery_instruction) as "打印送餐指令"

    rec_meal_delivery <-- deliverer
    print_delivery_instruction <-- deliverer
}

@enduml