@startuml

left to right direction

actor :申请人: as requester
actor :健康与\n安全部门: as hs_dept
actor :培训数据库: as training_db
actor :买家: as buyer
actor :化学品仓库: as csr


skinparam rectangle{
    BackgroundColor DarkGrey
}

rectangle "CTS System"{
    usecase (获取材料安全\n数据表) as obtain_material_sheet
    usecase (申请某件化学品) as req_chemical
    usecase (搜索供应商目录) as search_vendor_catalogs
    usecase (管理库存) as mgt_inventory
    usecase (处理某件化学品) as dispose_chemical

    requester --> obtain_material_sheet
    requester --> req_chemical
    requester -up-> dispose_chemical

    req_chemical --> training_db
    req_chemical --> buyer
    req_chemical --> csr

    buyer --> search_vendor_catalogs
    csr -up-> mgt_inventory
    dispose_chemical --> hs_dept
}

@enduml