@startuml

hide empty description
skinparam BackgroundColor transparent
'left to right direction

state "未完成" as incomplete
state "已接受" as accepted
state "已取消" as cancelled
state "已备餐" as prepared
state "待送餐" as pending_delivery
state "已送餐" as delivered

[*] --> incomplete
incomplete --> accepted:系统接受\n订单
incomplete --> cancelled:顾客取消\n未支付
accepted --> cancelled:顾客取消\n未支付
accepted --> prepared:自助餐厅\n准备食物
prepared --> pending_delivery:食堂工作人员\n请求送餐
prepared --> cancelled:顾客取消\n已支付
pending_delivery --> delivered:送餐人员送餐
pending_delivery --> accepted:顾客拒收
delivered --> [*]
cancelled --> [*]

@enduml