@startuml

skinparam BackgroundColor transparent

class "顾客" as Patron <<(E,lightgreen)>>{
}
class "订餐订单" as MealOrder <<(E,lightgreen)>>{
}
class "订餐支付" as MealPayment <<(E,lightgreen)>> {
}
class "订单菜品项" as OrderedFoodItem <<(E,lightgreen)>> {
}
class "菜单菜品项" as MenuFoodItem <<(E,lightgreen)>> {
}
class "菜单" as Menu <<(E,lightgreen)>> {
}

class "下单" as placing <<(R,yellow)>>{
}
class "付款" as paying <<(R,yellow)>>{
}
class "包含" as containing_01 <<(R,yellow)>>{
}
class "选择" as choosing <<(R,yellow)>>{
}
class "包含" as containing_02 <<(R,yellow)>>{
}

Patron "1" -- "m" MealOrder
placing . (Patron, MealOrder)

MealOrder "1" -- "1" MealPayment
paying . (MealOrder, MealPayment) 

MealOrder "m" - "m" OrderedFoodItem
(MealOrder, OrderedFoodItem) . containing_01

OrderedFoodItem "1" - "m" MenuFoodItem
(OrderedFoodItem, MenuFoodItem) . choosing

MenuFoodItem "m" -- "m" Menu
(MenuFoodItem, Menu) . containing_02

@enduml